Lab1/wokwi-logic.vcd
$version Generated by Wokwi.com $end
$date Thu, 26 Mar 2026 15:53:36 GMT $end
$timescale 1ns $end
$scope module logic $end
$var wire 1 ! D0 $end
$var wire 1 " D1 $end
$var wire 1 # D2 $end
$var wire 1 $ D3 $end
$var wire 1 % D4 $end
$upscope $end
$enddefinitions $end
#0
0!
#0
0"
#0
0#
#0
0$
#0
0%
#1599494633
1!
#1749356517
0!
#2583494633
1!
#2733356517
0!
#3091494579
1$
#3391356521
0$
#3630494637
1!
#3780356521
0!
#4257494454
1#
#4557356519
0#
#4677494636
1!
#4827356519
0!
#5542494636
1!
#5692356519
0!
#5931494482
1"
#6231356520
0"
#6589494637
1!
#6739356520
0!
#7573494637
1!
#7723356520
0!
#8064484950
1%
#8568494637
1!
#8718356520
0!
#8734109975
0%
#9523494637
1!
#9673356520
0!
#10593494637
1!
#10743356520
0!
#11548494637
1!
#11698356520
0!
#12618494636
1!
#12768356520
0!
#13573494636
1!
#13723356520
0!
#14528494636
1!
#14678356519
0!
#15513733273
0!
#15513733273
0!
